%YAML 1.1
%TAG !u! tag:unity3d.com,2011:
--- !u!319 &31900000
AvatarMask:
  m_ObjectHideFlags: 0
  m_CorrespondingSourceObject: {fileID: 0}
  m_PrefabInstance: {fileID: 0}
  m_PrefabAsset: {fileID: 0}
  m_Name: MarioFacialMask
  m_Mask: 01000000010000000100000001000000010000000100000001000000010000000100000001000000010000000100000001000000
  m_Elements:
  - m_Path: 
    m_Weight: 1
  - m_Path: Afro_Buzz_Cut_Hair
    m_Weight: 1
  - m_Path: Basic_T_shirts
    m_Weight: 1
  - m_Path: Boxers
    m_Weight: 1
  - m_Path: CC_Base_Body
    m_Weight: 1
  - m_Path: CC_Base_BoneRoot
    m_Weight: 0
  - m_Path: CC_Base_BoneRoot/CC_Base_Hip
    m_Weight: 0
  - m_Path: CC_Base_BoneRoot/CC_Base_Hip/CC_Base_Pelvis
    m_Weight: 0
  - m_Path: CC_Base_BoneRoot/CC_Base_Hip/CC_Base_Pelvis/CC_Base_L_Thigh
    m_Weight: 0
  - m_Path: CC_Base_BoneRoot/CC_Base_Hip/CC_Base_Pelvis/CC_Base_L_Thigh/CC_Base_L_Calf
    m_Weight: 0
  - m_Path: CC_Base_BoneRoot/CC_Base_Hip/CC_Base_Pelvis/CC_Base_L_Thigh/CC_Base_L_Calf/CC_Base_L_CalfTwist01
    m_Weight: 0
  - m_Path: CC_Base_BoneRoot/CC_Base_Hip/CC_Base_Pelvis/CC_Base_L_Thigh/CC_Base_L_Calf/CC_Base_L_CalfTwist01/CC_Base_L_CalfTwist02
    m_Weight: 0
  - m_Path: CC_Base_BoneRoot/CC_Base_Hip/CC_Base_Pelvis/CC_Base_L_Thigh/CC_Base_L_Calf/CC_Base_L_Foot
    m_Weight: 0
  - m_Path: CC_Base_BoneRoot/CC_Base_Hip/CC_Base_Pelvis/CC_Base_L_Thigh/CC_Base_L_Calf/CC_Base_L_Foot/CC_Base_L_ToeBase
    m_Weight: 0
  - m_Path: CC_Base_BoneRoot/CC_Base_Hip/CC_Base_Pelvis/CC_Base_L_Thigh/CC_Base_L_Calf/CC_Base_L_Foot/CC_Base_L_ToeBase/CC_Base_L_BigToe1
    m_Weight: 0
  - m_Path: CC_Base_BoneRoot/CC_Base_Hip/CC_Base_Pelvis/CC_Base_L_Thigh/CC_Base_L_Calf/CC_Base_L_Foot/CC_Base_L_ToeBase/CC_Base_L_IndexToe1
    m_Weight: 0
  - m_Path: CC_Base_BoneRoot/CC_Base_Hip/CC_Base_Pelvis/CC_Base_L_Thigh/CC_Base_L_Calf/CC_Base_L_Foot/CC_Base_L_ToeBase/CC_Base_L_MidToe1
    m_Weight: 0
  - m_Path: CC_Base_BoneRoot/CC_Base_Hip/CC_Base_Pelvis/CC_Base_L_Thigh/CC_Base_L_Calf/CC_Base_L_Foot/CC_Base_L_ToeBase/CC_Base_L_PinkyToe1
    m_Weight: 0
  - m_Path: CC_Base_BoneRoot/CC_Base_Hip/CC_Base_Pelvis/CC_Base_L_Thigh/CC_Base_L_Calf/CC_Base_L_Foot/CC_Base_L_ToeBase/CC_Base_L_RingToe1
    m_Weight: 0
  - m_Path: CC_Base_BoneRoot/CC_Base_Hip/CC_Base_Pelvis/CC_Base_L_Thigh/CC_Base_L_Calf/CC_Base_L_Foot/CC_Base_L_ToeBaseShareBone
    m_Weight: 0
  - m_Path: CC_Base_BoneRoot/CC_Base_Hip/CC_Base_Pelvis/CC_Base_L_Thigh/CC_Base_L_Calf/CC_Base_L_KneeShareBone
    m_Weight: 0
  - m_Path: CC_Base_BoneRoot/CC_Base_Hip/CC_Base_Pelvis/CC_Base_L_Thigh/CC_Base_L_ThighTwist01
    m_Weight: 0
  - m_Path: CC_Base_BoneRoot/CC_Base_Hip/CC_Base_Pelvis/CC_Base_L_Thigh/CC_Base_L_ThighTwist01/CC_Base_L_ThighTwist02
    m_Weight: 0
  - m_Path: CC_Base_BoneRoot/CC_Base_Hip/CC_Base_Pelvis/CC_Base_R_Thigh
    m_Weight: 0
  - m_Path: CC_Base_BoneRoot/CC_Base_Hip/CC_Base_Pelvis/CC_Base_R_Thigh/CC_Base_R_Calf
    m_Weight: 0
  - m_Path: CC_Base_BoneRoot/CC_Base_Hip/CC_Base_Pelvis/CC_Base_R_Thigh/CC_Base_R_Calf/CC_Base_R_CalfTwist01
    m_Weight: 0
  - m_Path: CC_Base_BoneRoot/CC_Base_Hip/CC_Base_Pelvis/CC_Base_R_Thigh/CC_Base_R_Calf/CC_Base_R_CalfTwist01/CC_Base_R_CalfTwist02
    m_Weight: 0
  - m_Path: CC_Base_BoneRoot/CC_Base_Hip/CC_Base_Pelvis/CC_Base_R_Thigh/CC_Base_R_Calf/CC_Base_R_Foot
    m_Weight: 0
  - m_Path: CC_Base_BoneRoot/CC_Base_Hip/CC_Base_Pelvis/CC_Base_R_Thigh/CC_Base_R_Calf/CC_Base_R_Foot/CC_Base_R_ToeBase
    m_Weight: 0
  - m_Path: CC_Base_BoneRoot/CC_Base_Hip/CC_Base_Pelvis/CC_Base_R_Thigh/CC_Base_R_Calf/CC_Base_R_Foot/CC_Base_R_ToeBase/CC_Base_R_BigToe1
    m_Weight: 0
  - m_Path: CC_Base_BoneRoot/CC_Base_Hip/CC_Base_Pelvis/CC_Base_R_Thigh/CC_Base_R_Calf/CC_Base_R_Foot/CC_Base_R_ToeBase/CC_Base_R_IndexToe1
    m_Weight: 0
  - m_Path: CC_Base_BoneRoot/CC_Base_Hip/CC_Base_Pelvis/CC_Base_R_Thigh/CC_Base_R_Calf/CC_Base_R_Foot/CC_Base_R_ToeBase/CC_Base_R_MidToe1
    m_Weight: 0
  - m_Path: CC_Base_BoneRoot/CC_Base_Hip/CC_Base_Pelvis/CC_Base_R_Thigh/CC_Base_R_Calf/CC_Base_R_Foot/CC_Base_R_ToeBase/CC_Base_R_PinkyToe1
    m_Weight: 0
  - m_Path: CC_Base_BoneRoot/CC_Base_Hip/CC_Base_Pelvis/CC_Base_R_Thigh/CC_Base_R_Calf/CC_Base_R_Foot/CC_Base_R_ToeBase/CC_Base_R_RingToe1
    m_Weight: 0
  - m_Path: CC_Base_BoneRoot/CC_Base_Hip/CC_Base_Pelvis/CC_Base_R_Thigh/CC_Base_R_Calf/CC_Base_R_Foot/CC_Base_R_ToeBaseShareBone
    m_Weight: 0
  - m_Path: CC_Base_BoneRoot/CC_Base_Hip/CC_Base_Pelvis/CC_Base_R_Thigh/CC_Base_R_Calf/CC_Base_R_KneeShareBone
    m_Weight: 0
  - m_Path: CC_Base_BoneRoot/CC_Base_Hip/CC_Base_Pelvis/CC_Base_R_Thigh/CC_Base_R_ThighTwist01
    m_Weight: 0
  - m_Path: CC_Base_BoneRoot/CC_Base_Hip/CC_Base_Pelvis/CC_Base_R_Thigh/CC_Base_R_ThighTwist01/CC_Base_R_ThighTwist02
    m_Weight: 0
  - m_Path: CC_Base_BoneRoot/CC_Base_Hip/CC_Base_Waist
    m_Weight: 0
  - m_Path: CC_Base_BoneRoot/CC_Base_Hip/CC_Base_Waist/CC_Base_Spine01
    m_Weight: 0
  - m_Path: CC_Base_BoneRoot/CC_Base_Hip/CC_Base_Waist/CC_Base_Spine01/CC_Base_Spine02
    m_Weight: 0
  - m_Path: CC_Base_BoneRoot/CC_Base_Hip/CC_Base_Waist/CC_Base_Spine01/CC_Base_Spine02/CC_Base_L_Clavicle
    m_Weight: 0
  - m_Path: CC_Base_BoneRoot/CC_Base_Hip/CC_Base_Waist/CC_Base_Spine01/CC_Base_Spine02/CC_Base_L_Clavicle/CC_Base_L_Upperarm
    m_Weight: 0
  - m_Path: CC_Base_BoneRoot/CC_Base_Hip/CC_Base_Waist/CC_Base_Spine01/CC_Base_Spine02/CC_Base_L_Clavicle/CC_Base_L_Upperarm/CC_Base_L_Forearm
    m_Weight: 0
  - m_Path: CC_Base_BoneRoot/CC_Base_Hip/CC_Base_Waist/CC_Base_Spine01/CC_Base_Spine02/CC_Base_L_Clavicle/CC_Base_L_Upperarm/CC_Base_L_Forearm/CC_Base_L_ElbowShareBone
    m_Weight: 0
  - m_Path: CC_Base_BoneRoot/CC_Base_Hip/CC_Base_Waist/CC_Base_Spine01/CC_Base_Spine02/CC_Base_L_Clavicle/CC_Base_L_Upperarm/CC_Base_L_Forearm/CC_Base_L_ForearmTwist01
    m_Weight: 0
  - m_Path: CC_Base_BoneRoot/CC_Base_Hip/CC_Base_Waist/CC_Base_Spine01/CC_Base_Spine02/CC_Base_L_Clavicle/CC_Base_L_Upperarm/CC_Base_L_Forearm/CC_Base_L_ForearmTwist01/CC_Base_L_ForearmTwist02
    m_Weight: 0
  - m_Path: CC_Base_BoneRoot/CC_Base_Hip/CC_Base_Waist/CC_Base_Spine01/CC_Base_Spine02/CC_Base_L_Clavicle/CC_Base_L_Upperarm/CC_Base_L_Forearm/CC_Base_L_Hand
    m_Weight: 0
  - m_Path: CC_Base_BoneRoot/CC_Base_Hip/CC_Base_Waist/CC_Base_Spine01/CC_Base_Spine02/CC_Base_L_Clavicle/CC_Base_L_Upperarm/CC_Base_L_Forearm/CC_Base_L_Hand/CC_Base_L_Index1
    m_Weight: 0
  - m_Path: CC_Base_BoneRoot/CC_Base_Hip/CC_Base_Waist/CC_Base_Spine01/CC_Base_Spine02/CC_Base_L_Clavicle/CC_Base_L_Upperarm/CC_Base_L_Forearm/CC_Base_L_Hand/CC_Base_L_Index1/CC_Base_L_Index2
    m_Weight: 0
  - m_Path: CC_Base_BoneRoot/CC_Base_Hip/CC_Base_Waist/CC_Base_Spine01/CC_Base_Spine02/CC_Base_L_Clavicle/CC_Base_L_Upperarm/CC_Base_L_Forearm/CC_Base_L_Hand/CC_Base_L_Index1/CC_Base_L_Index2/CC_Base_L_Index3
    m_Weight: 0
  - m_Path: CC_Base_BoneRoot/CC_Base_Hip/CC_Base_Waist/CC_Base_Spine01/CC_Base_Spine02/CC_Base_L_Clavicle/CC_Base_L_Upperarm/CC_Base_L_Forearm/CC_Base_L_Hand/CC_Base_L_Mid1
    m_Weight: 0
  - m_Path: CC_Base_BoneRoot/CC_Base_Hip/CC_Base_Waist/CC_Base_Spine01/CC_Base_Spine02/CC_Base_L_Clavicle/CC_Base_L_Upperarm/CC_Base_L_Forearm/CC_Base_L_Hand/CC_Base_L_Mid1/CC_Base_L_Mid2
    m_Weight: 0
  - m_Path: CC_Base_BoneRoot/CC_Base_Hip/CC_Base_Waist/CC_Base_Spine01/CC_Base_Spine02/CC_Base_L_Clavicle/CC_Base_L_Upperarm/CC_Base_L_Forearm/CC_Base_L_Hand/CC_Base_L_Mid1/CC_Base_L_Mid2/CC_Base_L_Mid3
    m_Weight: 0
  - m_Path: CC_Base_BoneRoot/CC_Base_Hip/CC_Base_Waist/CC_Base_Spine01/CC_Base_Spine02/CC_Base_L_Clavicle/CC_Base_L_Upperarm/CC_Base_L_Forearm/CC_Base_L_Hand/CC_Base_L_Pinky1
    m_Weight: 0
  - m_Path: CC_Base_BoneRoot/CC_Base_Hip/CC_Base_Waist/CC_Base_Spine01/CC_Base_Spine02/CC_Base_L_Clavicle/CC_Base_L_Upperarm/CC_Base_L_Forearm/CC_Base_L_Hand/CC_Base_L_Pinky1/CC_Base_L_Pinky2
    m_Weight: 0
  - m_Path: CC_Base_BoneRoot/CC_Base_Hip/CC_Base_Waist/CC_Base_Spine01/CC_Base_Spine02/CC_Base_L_Clavicle/CC_Base_L_Upperarm/CC_Base_L_Forearm/CC_Base_L_Hand/CC_Base_L_Pinky1/CC_Base_L_Pinky2/CC_Base_L_Pinky3
    m_Weight: 0
  - m_Path: CC_Base_BoneRoot/CC_Base_Hip/CC_Base_Waist/CC_Base_Spine01/CC_Base_Spine02/CC_Base_L_Clavicle/CC_Base_L_Upperarm/CC_Base_L_Forearm/CC_Base_L_Hand/CC_Base_L_Ring1
    m_Weight: 0
  - m_Path: CC_Base_BoneRoot/CC_Base_Hip/CC_Base_Waist/CC_Base_Spine01/CC_Base_Spine02/CC_Base_L_Clavicle/CC_Base_L_Upperarm/CC_Base_L_Forearm/CC_Base_L_Hand/CC_Base_L_Ring1/CC_Base_L_Ring2
    m_Weight: 0
  - m_Path: CC_Base_BoneRoot/CC_Base_Hip/CC_Base_Waist/CC_Base_Spine01/CC_Base_Spine02/CC_Base_L_Clavicle/CC_Base_L_Upperarm/CC_Base_L_Forearm/CC_Base_L_Hand/CC_Base_L_Ring1/CC_Base_L_Ring2/CC_Base_L_Ring3
    m_Weight: 0
  - m_Path: CC_Base_BoneRoot/CC_Base_Hip/CC_Base_Waist/CC_Base_Spine01/CC_Base_Spine02/CC_Base_L_Clavicle/CC_Base_L_Upperarm/CC_Base_L_Forearm/CC_Base_L_Hand/CC_Base_L_Thumb1
    m_Weight: 0
  - m_Path: CC_Base_BoneRoot/CC_Base_Hip/CC_Base_Waist/CC_Base_Spine01/CC_Base_Spine02/CC_Base_L_Clavicle/CC_Base_L_Upperarm/CC_Base_L_Forearm/CC_Base_L_Hand/CC_Base_L_Thumb1/CC_Base_L_Thumb2
    m_Weight: 0
  - m_Path: CC_Base_BoneRoot/CC_Base_Hip/CC_Base_Waist/CC_Base_Spine01/CC_Base_Spine02/CC_Base_L_Clavicle/CC_Base_L_Upperarm/CC_Base_L_Forearm/CC_Base_L_Hand/CC_Base_L_Thumb1/CC_Base_L_Thumb2/CC_Base_L_Thumb3
    m_Weight: 0
  - m_Path: CC_Base_BoneRoot/CC_Base_Hip/CC_Base_Waist/CC_Base_Spine01/CC_Base_Spine02/CC_Base_L_Clavicle/CC_Base_L_Upperarm/CC_Base_L_UpperarmTwist01
    m_Weight: 0
  - m_Path: CC_Base_BoneRoot/CC_Base_Hip/CC_Base_Waist/CC_Base_Spine01/CC_Base_Spine02/CC_Base_L_Clavicle/CC_Base_L_Upperarm/CC_Base_L_UpperarmTwist01/CC_Base_L_UpperarmTwist02
    m_Weight: 0
  - m_Path: CC_Base_BoneRoot/CC_Base_Hip/CC_Base_Waist/CC_Base_Spine01/CC_Base_Spine02/CC_Base_L_RibsTwist
    m_Weight: 0
  - m_Path: CC_Base_BoneRoot/CC_Base_Hip/CC_Base_Waist/CC_Base_Spine01/CC_Base_Spine02/CC_Base_L_RibsTwist/CC_Base_L_Breast
    m_Weight: 0
  - m_Path: CC_Base_BoneRoot/CC_Base_Hip/CC_Base_Waist/CC_Base_Spine01/CC_Base_Spine02/CC_Base_NeckTwist01
    m_Weight: 0
  - m_Path: CC_Base_BoneRoot/CC_Base_Hip/CC_Base_Waist/CC_Base_Spine01/CC_Base_Spine02/CC_Base_NeckTwist01/CC_Base_NeckTwist02
    m_Weight: 0
  - m_Path: CC_Base_BoneRoot/CC_Base_Hip/CC_Base_Waist/CC_Base_Spine01/CC_Base_Spine02/CC_Base_NeckTwist01/CC_Base_NeckTwist02/CC_Base_Head
    m_Weight: 0
  - m_Path: CC_Base_BoneRoot/CC_Base_Hip/CC_Base_Waist/CC_Base_Spine01/CC_Base_Spine02/CC_Base_NeckTwist01/CC_Base_NeckTwist02/CC_Base_Head/CC_Base_FacialBone
    m_Weight: 1
  - m_Path: CC_Base_BoneRoot/CC_Base_Hip/CC_Base_Waist/CC_Base_Spine01/CC_Base_Spine02/CC_Base_NeckTwist01/CC_Base_NeckTwist02/CC_Base_Head/CC_Base_FacialBone/CC_Base_JawRoot
    m_Weight: 1
  - m_Path: CC_Base_BoneRoot/CC_Base_Hip/CC_Base_Waist/CC_Base_Spine01/CC_Base_Spine02/CC_Base_NeckTwist01/CC_Base_NeckTwist02/CC_Base_Head/CC_Base_FacialBone/CC_Base_JawRoot/CC_Base_Teeth02
    m_Weight: 1
  - m_Path: CC_Base_BoneRoot/CC_Base_Hip/CC_Base_Waist/CC_Base_Spine01/CC_Base_Spine02/CC_Base_NeckTwist01/CC_Base_NeckTwist02/CC_Base_Head/CC_Base_FacialBone/CC_Base_JawRoot/CC_Base_Tongue01
    m_Weight: 1
  - m_Path: CC_Base_BoneRoot/CC_Base_Hip/CC_Base_Waist/CC_Base_Spine01/CC_Base_Spine02/CC_Base_NeckTwist01/CC_Base_NeckTwist02/CC_Base_Head/CC_Base_FacialBone/CC_Base_JawRoot/CC_Base_Tongue01/CC_Base_Tongue02
    m_Weight: 1
  - m_Path: CC_Base_BoneRoot/CC_Base_Hip/CC_Base_Waist/CC_Base_Spine01/CC_Base_Spine02/CC_Base_NeckTwist01/CC_Base_NeckTwist02/CC_Base_Head/CC_Base_FacialBone/CC_Base_JawRoot/CC_Base_Tongue01/CC_Base_Tongue02/CC_Base_Tongue03
    m_Weight: 1
  - m_Path: CC_Base_BoneRoot/CC_Base_Hip/CC_Base_Waist/CC_Base_Spine01/CC_Base_Spine02/CC_Base_NeckTwist01/CC_Base_NeckTwist02/CC_Base_Head/CC_Base_FacialBone/CC_Base_L_Eye
    m_Weight: 1
  - m_Path: CC_Base_BoneRoot/CC_Base_Hip/CC_Base_Waist/CC_Base_Spine01/CC_Base_Spine02/CC_Base_NeckTwist01/CC_Base_NeckTwist02/CC_Base_Head/CC_Base_FacialBone/CC_Base_R_Eye
    m_Weight: 1
  - m_Path: CC_Base_BoneRoot/CC_Base_Hip/CC_Base_Waist/CC_Base_Spine01/CC_Base_Spine02/CC_Base_NeckTwist01/CC_Base_NeckTwist02/CC_Base_Head/CC_Base_FacialBone/CC_Base_UpperJaw
    m_Weight: 1
  - m_Path: CC_Base_BoneRoot/CC_Base_Hip/CC_Base_Waist/CC_Base_Spine01/CC_Base_Spine02/CC_Base_NeckTwist01/CC_Base_NeckTwist02/CC_Base_Head/CC_Base_FacialBone/CC_Base_UpperJaw/CC_Base_Teeth01
    m_Weight: 1
  - m_Path: CC_Base_BoneRoot/CC_Base_Hip/CC_Base_Waist/CC_Base_Spine01/CC_Base_Spine02/CC_Base_R_Clavicle
    m_Weight: 0
  - m_Path: CC_Base_BoneRoot/CC_Base_Hip/CC_Base_Waist/CC_Base_Spine01/CC_Base_Spine02/CC_Base_R_Clavicle/CC_Base_R_Upperarm
    m_Weight: 0
  - m_Path: CC_Base_BoneRoot/CC_Base_Hip/CC_Base_Waist/CC_Base_Spine01/CC_Base_Spine02/CC_Base_R_Clavicle/CC_Base_R_Upperarm/CC_Base_R_Forearm
    m_Weight: 0
  - m_Path: CC_Base_BoneRoot/CC_Base_Hip/CC_Base_Waist/CC_Base_Spine01/CC_Base_Spine02/CC_Base_R_Clavicle/CC_Base_R_Upperarm/CC_Base_R_Forearm/CC_Base_R_ElbowShareBone
    m_Weight: 0
  - m_Path: CC_Base_BoneRoot/CC_Base_Hip/CC_Base_Waist/CC_Base_Spine01/CC_Base_Spine02/CC_Base_R_Clavicle/CC_Base_R_Upperarm/CC_Base_R_Forearm/CC_Base_R_ForearmTwist01
    m_Weight: 0
  - m_Path: CC_Base_BoneRoot/CC_Base_Hip/CC_Base_Waist/CC_Base_Spine01/CC_Base_Spine02/CC_Base_R_Clavicle/CC_Base_R_Upperarm/CC_Base_R_Forearm/CC_Base_R_ForearmTwist01/CC_Base_R_ForearmTwist02
    m_Weight: 0
  - m_Path: CC_Base_BoneRoot/CC_Base_Hip/CC_Base_Waist/CC_Base_Spine01/CC_Base_Spine02/CC_Base_R_Clavicle/CC_Base_R_Upperarm/CC_Base_R_Forearm/CC_Base_R_Hand
    m_Weight: 0
  - m_Path: CC_Base_BoneRoot/CC_Base_Hip/CC_Base_Waist/CC_Base_Spine01/CC_Base_Spine02/CC_Base_R_Clavicle/CC_Base_R_Upperarm/CC_Base_R_Forearm/CC_Base_R_Hand/CC_Base_R_Index1
    m_Weight: 0
  - m_Path: CC_Base_BoneRoot/CC_Base_Hip/CC_Base_Waist/CC_Base_Spine01/CC_Base_Spine02/CC_Base_R_Clavicle/CC_Base_R_Upperarm/CC_Base_R_Forearm/CC_Base_R_Hand/CC_Base_R_Index1/CC_Base_R_Index2
    m_Weight: 0
  - m_Path: CC_Base_BoneRoot/CC_Base_Hip/CC_Base_Waist/CC_Base_Spine01/CC_Base_Spine02/CC_Base_R_Clavicle/CC_Base_R_Upperarm/CC_Base_R_Forearm/CC_Base_R_Hand/CC_Base_R_Index1/CC_Base_R_Index2/CC_Base_R_Index3
    m_Weight: 0
  - m_Path: CC_Base_BoneRoot/CC_Base_Hip/CC_Base_Waist/CC_Base_Spine01/CC_Base_Spine02/CC_Base_R_Clavicle/CC_Base_R_Upperarm/CC_Base_R_Forearm/CC_Base_R_Hand/CC_Base_R_Mid1
    m_Weight: 0
  - m_Path: CC_Base_BoneRoot/CC_Base_Hip/CC_Base_Waist/CC_Base_Spine01/CC_Base_Spine02/CC_Base_R_Clavicle/CC_Base_R_Upperarm/CC_Base_R_Forearm/CC_Base_R_Hand/CC_Base_R_Mid1/CC_Base_R_Mid2
    m_Weight: 0
  - m_Path: CC_Base_BoneRoot/CC_Base_Hip/CC_Base_Waist/CC_Base_Spine01/CC_Base_Spine02/CC_Base_R_Clavicle/CC_Base_R_Upperarm/CC_Base_R_Forearm/CC_Base_R_Hand/CC_Base_R_Mid1/CC_Base_R_Mid2/CC_Base_R_Mid3
    m_Weight: 0
  - m_Path: CC_Base_BoneRoot/CC_Base_Hip/CC_Base_Waist/CC_Base_Spine01/CC_Base_Spine02/CC_Base_R_Clavicle/CC_Base_R_Upperarm/CC_Base_R_Forearm/CC_Base_R_Hand/CC_Base_R_Pinky1
    m_Weight: 0
  - m_Path: CC_Base_BoneRoot/CC_Base_Hip/CC_Base_Waist/CC_Base_Spine01/CC_Base_Spine02/CC_Base_R_Clavicle/CC_Base_R_Upperarm/CC_Base_R_Forearm/CC_Base_R_Hand/CC_Base_R_Pinky1/CC_Base_R_Pinky2
    m_Weight: 0
  - m_Path: CC_Base_BoneRoot/CC_Base_Hip/CC_Base_Waist/CC_Base_Spine01/CC_Base_Spine02/CC_Base_R_Clavicle/CC_Base_R_Upperarm/CC_Base_R_Forearm/CC_Base_R_Hand/CC_Base_R_Pinky1/CC_Base_R_Pinky2/CC_Base_R_Pinky3
    m_Weight: 0
  - m_Path: CC_Base_BoneRoot/CC_Base_Hip/CC_Base_Waist/CC_Base_Spine01/CC_Base_Spine02/CC_Base_R_Clavicle/CC_Base_R_Upperarm/CC_Base_R_Forearm/CC_Base_R_Hand/CC_Base_R_Ring1
    m_Weight: 0
  - m_Path: CC_Base_BoneRoot/CC_Base_Hip/CC_Base_Waist/CC_Base_Spine01/CC_Base_Spine02/CC_Base_R_Clavicle/CC_Base_R_Upperarm/CC_Base_R_Forearm/CC_Base_R_Hand/CC_Base_R_Ring1/CC_Base_R_Ring2
    m_Weight: 0
  - m_Path: CC_Base_BoneRoot/CC_Base_Hip/CC_Base_Waist/CC_Base_Spine01/CC_Base_Spine02/CC_Base_R_Clavicle/CC_Base_R_Upperarm/CC_Base_R_Forearm/CC_Base_R_Hand/CC_Base_R_Ring1/CC_Base_R_Ring2/CC_Base_R_Ring3
    m_Weight: 0
  - m_Path: CC_Base_BoneRoot/CC_Base_Hip/CC_Base_Waist/CC_Base_Spine01/CC_Base_Spine02/CC_Base_R_Clavicle/CC_Base_R_Upperarm/CC_Base_R_Forearm/CC_Base_R_Hand/CC_Base_R_Thumb1
    m_Weight: 0
  - m_Path: CC_Base_BoneRoot/CC_Base_Hip/CC_Base_Waist/CC_Base_Spine01/CC_Base_Spine02/CC_Base_R_Clavicle/CC_Base_R_Upperarm/CC_Base_R_Forearm/CC_Base_R_Hand/CC_Base_R_Thumb1/CC_Base_R_Thumb2
    m_Weight: 0
  - m_Path: CC_Base_BoneRoot/CC_Base_Hip/CC_Base_Waist/CC_Base_Spine01/CC_Base_Spine02/CC_Base_R_Clavicle/CC_Base_R_Upperarm/CC_Base_R_Forearm/CC_Base_R_Hand/CC_Base_R_Thumb1/CC_Base_R_Thumb2/CC_Base_R_Thumb3
    m_Weight: 0
  - m_Path: CC_Base_BoneRoot/CC_Base_Hip/CC_Base_Waist/CC_Base_Spine01/CC_Base_Spine02/CC_Base_R_Clavicle/CC_Base_R_Upperarm/CC_Base_R_UpperarmTwist01
    m_Weight: 0
  - m_Path: CC_Base_BoneRoot/CC_Base_Hip/CC_Base_Waist/CC_Base_Spine01/CC_Base_Spine02/CC_Base_R_Clavicle/CC_Base_R_Upperarm/CC_Base_R_UpperarmTwist01/CC_Base_R_UpperarmTwist02
    m_Weight: 0
  - m_Path: CC_Base_BoneRoot/CC_Base_Hip/CC_Base_Waist/CC_Base_Spine01/CC_Base_Spine02/CC_Base_R_RibsTwist
    m_Weight: 0
  - m_Path: CC_Base_BoneRoot/CC_Base_Hip/CC_Base_Waist/CC_Base_Spine01/CC_Base_Spine02/CC_Base_R_RibsTwist/CC_Base_R_Breast
    m_Weight: 0
  - m_Path: CC_Base_Eye
    m_Weight: 1
  - m_Path: CC_Base_EyeOcclusion
    m_Weight: 1
  - m_Path: CC_Base_TearLine
    m_Weight: 1
  - m_Path: CC_Base_Teeth
    m_Weight: 1
  - m_Path: CC_Base_Tongue
    m_Weight: 1
  - m_Path: Slim_Jeans
    m_Weight: 1
  - m_Path: Sport_sneakers
    m_Weight: 1
