%YAML 1.1
%TAG !u! tag:unity3d.com,2011:
--- !u!21 &2100000
Material:
  serializedVersion: 8
  m_ObjectHideFlags: 0
  m_CorrespondingSourceObject: {fileID: 0}
  m_PrefabInstance: {fileID: 0}
  m_PrefabAsset: {fileID: 0}
  m_Name: Hair_Transparency_1st_Pass
  m_Shader: {fileID: -6465566751694194690, guid: 913a13959a6beae4b9d21bcd34541c26, type: 3}
  m_Parent: {fileID: 0}
  m_ModifiedSerializedProperties: 0
  m_ValidKeywords:
  - _ALPHATEST_ON
  - _ALPHATOMASK_ON
  - _DISABLE_SSR_TRANSPARENT
  - _DOUBLESIDED_ON
  m_InvalidKeywords: []
  m_LightmapFlags: 4
  m_EnableInstancingVariants: 0
  m_DoubleSidedGI: 1
  m_CustomRenderQueue: 2475
  stringTagMap:
    MotionVector: User
    RenderType: TransparentCutout
  disabledShaderPasses:
  - RayTracingPrepass
  - MOTIONVECTORS
  - TransparentDepthPrepass
  - TransparentDepthPostpass
  - TransparentBackface
  m_LockedProperties: 
  m_SavedProperties:
    serializedVersion: 3
    m_TexEnvs:
    - _BlendMap:
        m_Texture: {fileID: 0}
        m_Scale: {x: 1, y: 1}
        m_Offset: {x: 0, y: 0}
    - _DiffuseMap:
        m_Texture: {fileID: 2800000, guid: f63ebc97ffac9784b871f67293d66ce3, type: 3}
        m_Scale: {x: 1, y: 1}
        m_Offset: {x: 0, y: 0}
    - _EmissionMap:
        m_Texture: {fileID: 0}
        m_Scale: {x: 1, y: 1}
        m_Offset: {x: 0, y: 0}
    - _FlowMap:
        m_Texture: {fileID: 2800000, guid: bf46ea23a8f18044a97d7bb1912bdb02, type: 3}
        m_Scale: {x: 1, y: 1}
        m_Offset: {x: 0, y: 0}
    - _IDMap:
        m_Texture: {fileID: 2800000, guid: 9c7e118e8b20b7945b0ae629fc6db2e0, type: 3}
        m_Scale: {x: 1, y: 1}
        m_Offset: {x: 0, y: 0}
    - _MaskMap:
        m_Texture: {fileID: 2800000, guid: 90d59dd8d4e85194a8ce2d1710b923de, type: 3}
        m_Scale: {x: 1, y: 1}
        m_Offset: {x: 0, y: 0}
    - _NormalMap:
        m_Texture: {fileID: 2800000, guid: 004bb544bc28b6c4bb5abbd912586d6f, type: 3}
        m_Scale: {x: 1, y: 1}
        m_Offset: {x: 0, y: 0}
    - _RootMap:
        m_Texture: {fileID: 2800000, guid: d1de63438c5f94e45a227546e520c91f, type: 3}
        m_Scale: {x: 1, y: 1}
        m_Offset: {x: 0, y: 0}
    - _SpecularMap:
        m_Texture: {fileID: 2800000, guid: 9b9e6fd62cd93da49934d8e83a8bd198, type: 3}
        m_Scale: {x: 1, y: 1}
        m_Offset: {x: 0, y: 0}
    - unity_Lightmaps:
        m_Texture: {fileID: 0}
        m_Scale: {x: 1, y: 1}
        m_Offset: {x: 0, y: 0}
    - unity_LightmapsInd:
        m_Texture: {fileID: 0}
        m_Scale: {x: 1, y: 1}
        m_Offset: {x: 0, y: 0}
    - unity_ShadowMasks:
        m_Texture: {fileID: 0}
        m_Scale: {x: 1, y: 1}
        m_Offset: {x: 0, y: 0}
    m_Ints: []
    m_Floats:
    - BOOLEAN_ENABLECOLOR: 0
    - BOOLEAN_SECONDPASS: 0
    - _AOOccludeAll: 0.5
    - _AOStrength: 1
    - _AddPrecomputedVelocity: 0
    - _AlphaClip: 0.666
    - _AlphaCutoffEnable: 1
    - _AlphaDstBlend: 0
    - _AlphaPower: 0.7
    - _AlphaRemap: 1
    - _AlphaSrcBlend: 1
    - _AlphaToMask: 1
    - _AlphaToMaskInspectorValue: 1
    - _BaseColorStrength: 1
    - _BlendMode: 0
    - _BlendStrength: 0
    - _ConservativeDepthOffsetEnable: 0
    - _CullMode: 0
    - _CullModeForward: 0
    - _DepthOffsetEnable: 0
    - _DiffuseStrength: 1
    - _DoubleSidedEnable: 1
    - _DoubleSidedGIMode: 0
    - _DoubleSidedNormalMode: 2
    - _DstBlend: 0
    - _ENUMCLIPQUALITY_ON: 0
    - _EnableBlendModePreserveSpecularLighting: 0
    - _EnableFogOnTransparent: 1
    - _EndColorStrength: 1
    - _FlowMapFlipGreen: 0
    - _GlobalStrength: 1
    - _HighlightAOverlapEnd: 1
    - _HighlightAOverlapInvert: 1
    - _HighlightAStrength: 1
    - _HighlightBOverlapEnd: 1
    - _HighlightBOverlapInvert: 1
    - _HighlightBStrength: 1
    - _HighlightBlend: 1
    - _InvertRootMap: 0
    - _NormalStrength: 1
    - _OpaqueCullMode: 2
    - _ReceivesSSR: 1
    - _ReceivesSSRTransparent: 0
    - _RenderQueueType: 4
    - _RequireSplitLighting: 0
    - _RimTransmissionIntensity: 0.20385535
    - _RootColorStrength: 1
    - _SecondarySmoothness: 0.625
    - _SecondarySpecularMultiplier: 0.05985916
    - _SecondarySpecularShift: 0
    - _ShadowClip: 0.5
    - _SmoothnessMax: 0.8
    - _SmoothnessMin: 0.27199998
    - _SmoothnessPower: 1
    - _SpecularMultiplier: 0.2088927
    - _SpecularShiftMax: 0
    - _SpecularShiftMin: 0
    - _SrcBlend: 1
    - _StencilRef: 0
    - _StencilRefDepth: 8
    - _StencilRefDistortionVec: 4
    - _StencilRefGBuffer: 10
    - _StencilRefMV: 40
    - _StencilWriteMask: 6
    - _StencilWriteMaskDepth: 8
    - _StencilWriteMaskDistortionVec: 4
    - _StencilWriteMaskGBuffer: 14
    - _StencilWriteMaskMV: 40
    - _SupportDecals: 1
    - _SurfaceType: 0
    - _TransparentBackfaceEnable: 1
    - _TransparentCullMode: 2
    - _TransparentDepthPostpassEnable: 1
    - _TransparentDepthPrepassEnable: 1
    - _TransparentSortPriority: 0
    - _TransparentWritingMotionVec: 1
    - _TransparentZWrite: 0
    - _UseShadowThreshold: 1
    - _VertexColorStrength: 0.875
    - _ZTestDepthEqualForOpaque: 3
    - _ZTestGBuffer: 3
    - _ZTestTransparent: 4
    - _ZWrite: 1
    m_Colors:
    - _DiffuseColor: {r: 0.99999994, g: 0.99999994, b: 0.99999994, a: 1}
    - _DoubleSidedConstants: {r: 1, g: 1, b: 1, a: 0}
    - _EmissionColor: {r: 1, g: 1, b: 1, a: 1}
    - _EmissiveColor: {r: 0, g: 0, b: 0, a: 0}
    - _EndColor: {r: 0.2863614, g: 0.25026038, b: 0.2402475, a: 1}
    - _HighlightAColor: {r: 0.68538064, g: 0.6739363, b: 0.64722085, a: 1}
    - _HighlightADistribution: {r: 0.66120005, g: 0.8367001, b: 1, a: 0}
    - _HighlightBColor: {r: 0.2402475, g: 0.16618572, b: 0.08494474, a: 1}
    - _HighlightBDistribution: {r: 0, g: 0.3551, b: 0.6755, a: 0}
    - _RootColor: {r: 0.1318038, g: 0.11070206, b: 0.11070206, a: 1}
    - _SpecularTint: {r: 1, g: 0.9544474, b: 0.9464738, a: 1}
    - _VertexBaseColor: {r: 0, g: 0, b: 0, a: 1}
  m_BuildTextureStacks: []
--- !u!114 &4017658140060140709
MonoBehaviour:
  m_ObjectHideFlags: 11
  m_CorrespondingSourceObject: {fileID: 0}
  m_PrefabInstance: {fileID: 0}
  m_PrefabAsset: {fileID: 0}
  m_GameObject: {fileID: 0}
  m_Enabled: 1
  m_EditorHideFlags: 0
  m_Script: {fileID: 11500000, guid: da692e001514ec24dbc4cca1949ff7e8, type: 3}
  m_Name: 
  m_EditorClassIdentifier: 
  version: 12
  hdPluginSubTargetMaterialVersions:
    m_Keys: []
    m_Values: 
