%YAML 1.1
%TAG !u! tag:unity3d.com,2011:
--- !u!114 &11400000
MonoBehaviour:
  m_ObjectHideFlags: 0
  m_CorrespondingSourceObject: {fileID: 0}
  m_PrefabInstance: {fileID: 0}
  m_PrefabAsset: {fileID: 0}
  m_GameObject: {fileID: 0}
  m_Enabled: 1
  m_EditorHideFlags: 0
  m_Script: {fileID: 11500000, guid: f322f7e615875fc4ba55174ad93e1ddd, type: 3}
  m_Name: A2_B3
  m_EditorClassIdentifier: 
  attachedAnimations:
  - animation: {fileID: -7881739814215078984, guid: f331b8905da698a47920184a5cd5f3ce, type: 3}
    foley: {fileID: 0}
    localizedAudios:
    - loc: 0
      audio: {fileID: 0}
  lookAtCurve:
    serializedVersion: 2
    m_Curve:
    - serializedVersion: 3
      time: 0
      value: 0
      inSlope: 0
      outSlope: 0
      tangentMode: 34
      weightedMode: 0
      inWeight: 0
      outWeight: 0.33333334
    - serializedVersion: 3
      time: 1
      value: 0
      inSlope: 0
      outSlope: 0
      tangentMode: 34
      weightedMode: 0
      inWeight: 0.33333334
      outWeight: 0
    m_PreInfinity: 2
    m_PostInfinity: 2
    m_RotationOrder: 4
  localizedLabels:
    localizedObjects:
    - key: 0
      val:
        text: 
    - key: 1
      val:
        text: 
    - key: 2
      val:
        text: 
    - key: 3
      val:
        text: 
  followingNode: {fileID: 11400000, guid: 1fd6cd62904cee844b969a0c82055bbc, type: 2}
  type: 0
