%YAML 1.1
%TAG !u! tag:unity3d.com,2011:
--- !u!114 &11400000
MonoBehaviour:
  m_ObjectHideFlags: 0
  m_CorrespondingSourceObject: {fileID: 0}
  m_PrefabInstance: {fileID: 0}
  m_PrefabAsset: {fileID: 0}
  m_GameObject: {fileID: 0}
  m_Enabled: 1
  m_EditorHideFlags: 0
  m_Script: {fileID: 11500000, guid: f322f7e615875fc4ba55174ad93e1ddd, type: 3}
  m_Name: A5
  m_EditorClassIdentifier: 
  attachedAnimations:
  - animation: {fileID: 1827226128182048838, guid: 1183076fd662e4a419fe9b4220d4f948, type: 3}
    foley: {fileID: 0}
    localizedAudios:
    - loc: 0
      audio: {fileID: 8300000, guid: 1a1bf636453141449850355067d3cb39, type: 3}
    - loc: 4
      audio: {fileID: 8300000, guid: 5096b192bbf887844a9594c2310e81eb, type: 3}
  lookAtCurve:
    serializedVersion: 2
    m_Curve:
    - serializedVersion: 3
      time: 0
      value: 1
      inSlope: 0
      outSlope: 0
      tangentMode: 0
      weightedMode: 0
      inWeight: 0
      outWeight: 0.33333334
    - serializedVersion: 3
      time: 5.5
      value: 1
      inSlope: Infinity
      outSlope: -0.03436426
      tangentMode: 1
      weightedMode: 3
      inWeight: 0.33333334
      outWeight: 0.33333334
    - serializedVersion: 3
      time: 6.5
      value: 0
      inSlope: -1
      outSlope: 0
      tangentMode: 65
      weightedMode: 0
      inWeight: 0.33333334
      outWeight: 0.33333334
    - serializedVersion: 3
      time: 8
      value: 0
      inSlope: 0
      outSlope: 0
      tangentMode: 1
      weightedMode: 0
      inWeight: 0.33333334
      outWeight: 0.33333334
    - serializedVersion: 3
      time: 9
      value: 1
      inSlope: 0
      outSlope: 0
      tangentMode: 1
      weightedMode: 0
      inWeight: 0.33333334
      outWeight: 0.33333334
    - serializedVersion: 3
      time: 10
      value: 1
      inSlope: Infinity
      outSlope: -0.04524011
      tangentMode: 7
      weightedMode: 0
      inWeight: 0.33333334
      outWeight: 0.33333334
    - serializedVersion: 3
      time: 11
      value: 0
      inSlope: -0.057482995
      outSlope: 0
      tangentMode: 65
      weightedMode: 0
      inWeight: 0.33333334
      outWeight: 0.33333334
    - serializedVersion: 3
      time: 20
      value: 0
      inSlope: 0
      outSlope: 0
      tangentMode: 34
      weightedMode: 0
      inWeight: 0.33333334
      outWeight: 0
    m_PreInfinity: 2
    m_PostInfinity: 2
    m_RotationOrder: 4
  localizedLabels:
    localizedObjects:
    - key: 0
      val:
        text: "V\xEDte co, b\u011B\u017Ete pry\u010D."
    - key: 4
      val:
        text: "Wiesz co, odejd\u017A."
  followingNode: {fileID: 0}
  type: 5
