%YAML 1.1
%TAG !u! tag:unity3d.com,2011:
--- !u!1045 &1
EditorBuildSettings:
  m_ObjectHideFlags: 0
  serializedVersion: 2
  m_Scenes:
  - enabled: 1
    path: Assets/PRM.unity
    guid: 00eb063f395dcd649a7cb49148ebaddb
  m_configObjects:
    Unity.XR.Oculus.Settings: {fileID: 11400000, guid: 0a17426b1c039284dab63d34f549ce2c, type: 2}
    com.unity.xr.management.loader_settings: {fileID: 11400000, guid: 1b55921e0f9d6fa4798b0b734806bf8c, type: 2}
    com.unity.xr.openxr.settings4: {fileID: 11400000, guid: 3cada2a5589b84c4183a3c8548bb78aa, type: 2}
